<?xml version="1.0" encoding="UTF-8"?>
<!-- Created with Inkscape (http://www.inkscape.org/) -->
<svg width="672" height="220" version="1.1" viewBox="0 0 672 220" xmlns="http://www.w3.org/2000/svg">
 <g transform="translate(0 -39.699)" fill="#f60" fill-opacity=".99216">
  <rect x="6" y="59.699" width="180" height="180" rx="30" ry="30"/>
  <rect x="246" y="59.699" width="180" height="180" rx="60" ry="30"/>
  <rect x="486" y="59.699" width="180" height="180" rx="20" ry="90"/>
 </g>
</svg>
