<?xml version="1.0" encoding="UTF-8" standalone="no"?>
<svg xmlns:rdf="http://www.w3.org/1999/02/22-rdf-syntax-ns#" xmlns="http://www.w3.org/2000/svg" version="1.1" xmlns:cc="http://creativecommons.org/ns#" xmlns:xlink="http://www.w3.org/1999/xlink" viewBox="0 0 24.017883 24.015197" xmlns:dc="http://purl.org/dc/elements/1.1/">
<metadata>
<rdf:RDF>
<cc:Work rdf:about="">
<dc:format>image/svg+xml</dc:format>
<dc:type rdf:resource="http://purl.org/dc/dcmitype/StillImage"/>
</cc:Work>
</rdf:RDF>
</metadata>
<defs>
<linearGradient id="a" y2="30.79385" gradientUnits="userSpaceOnUse" x2="917.3691" gradientTransform="matrix(1.159934,0,0,1.224222,-143.4594,-12.87852)" y1="19.1921" x1="905.4675">
<stop stop-color="#fff" offset="0"/>
<stop stop-color="#aaa" offset="1"/>
</linearGradient>
</defs>
<g transform="translate(-899.9888,-4.968703)">
<g transform="translate(.0067 -.0161)" fill-rule="evenodd">
<path d="m923 6h1v21l-2 2h-21v-1h22v-22z" fill-opacity=".1786744"/>
<rect stroke-linejoin="round" style="color:#000000" height="22.03599" width="22.03876" stroke="#000" stroke-linecap="round" y="5.484803" x="900.4821" stroke-width=".9999998" fill="url(#a)"/>
</g>
<g stroke="#000" stroke-width="1px" transform="translate(.0067 -.0161)" fill="none">
<path d="m909.5 11v5"/>
<path d="m912.5 11.97746c1-0.5 3-1 3 1v3"/>
<path d="m917.5 7.470786v7.000004c0 1.15244 1 1 2 1"/>
<path d="m909.5 11.97746c1-0.5 3-1 3 1v3"/>
<path d="m903 10.97079 5 5"/>
<path d="m908 10.97079-5 5"/>
</g>
<g transform="translate(.0067 -.0161)">
<path d="m906.5 24.5-3-3 3-3m3 6 3-3-3-3" stroke="#000" stroke-linecap="square" stroke-width="1px" fill="none"/>
</g>
<g transform="translate(-57.4933 -150.51612)">
<path d="m972 171 1-1h7l1 1v7l-1 1h-7l-1-1v-7z" fill-rule="evenodd" stroke="#a00" stroke-width="1px" fill="#a00"/>
<path d="m974 171.85 5 5" stroke="#fff" stroke-width="1.7" fill="none"/>
<path stroke-linejoin="round" d="m979 171.85-5 5" stroke="#fff" stroke-width="1.8" fill="none"/>
</g>
</g>
</svg>
